module bitbucket.org/geliarsystems/weekend-random

require (
	github.com/beorn7/perks v0.0.0-20180321164747-3a771d992973 // indirect
	github.com/golang/protobuf v1.2.0 // indirect
	github.com/matttproud/golang_protobuf_extensions v1.0.1 // indirect
	github.com/prometheus/client_golang v0.9.1
	github.com/prometheus/client_model v0.0.0-20180712105110-5c3871d89910 // indirect
	github.com/prometheus/common v0.0.0-20181126121408-4724e9255275 // indirect
	github.com/prometheus/procfs v0.0.0-20181129180645-aa55a523dc0a // indirect
)
